src/subn_tb/subn_tb_wave.vcd
$date
  Mon Jan  8 17:23:09 2024
$end
$version
  GHDL v0
$end
$timescale
  1 fs
$end
$var reg 2 ! a_s[1:0] $end
$var reg 2 " b_s[1:0] $end
$var reg 2 # s_s[1:0] $end
$scope module dut $end
$var reg 2 $ a[1:0] $end
$var reg 2 % b[1:0] $end
$var reg 2 & s[1:0] $end
$var reg 3 ' c_s[2:0] $end
$scope module c(0) $end
$scope module ci $end
$var reg 1 ( a $end
$var reg 1 ) b $end
$var reg 1 * cin $end
$var reg 1 + cout $end
$var reg 1 , s $end
$upscope $end
$upscope $end
$scope module c(1) $end
$scope module ci $end
$var reg 1 - a $end
$var reg 1 . b $end
$var reg 1 / cin $end
$var reg 1 0 cout $end
$var reg 1 1 s $end
$upscope $end
$upscope $end
$upscope $end
$enddefinitions $end
#0
b00 !
b00 "
b00 #
b00 $
b00 %
b00 &
b000 '
0(
0)
0*
0+
0,
0-
0.
0/
00
01
#5000000
b01 "
b11 #
b01 %
b11 &
b110 '
1)
1+
1,
1/
10
11
#10000000
b10 "
b10 #
b10 %
b10 &
b100 '
0)
0+
0,
1.
0/
11
#15000000
b11 "
b01 #
b11 %
b01 &
b110 '
1)
1+
1,
1/
01
#20000000
b01 !
b00 "
b01 #
b01 $
b00 %
b01 &
b000 '
1(
0)
0+
0.
0/
00
01
#25000000
b01 "
b00 #
b01 %
b00 &
1)
0,
#30000000
b10 "
b11 #
b10 %
b11 &
b100 '
0)
1,
1.
10
11
#35000000
b11 "
b10 #
b11 %
b10 &
1)
0,
#40000000
b10 !
b00 "
b10 $
b00 %
b000 '
0(
0)
1-
0.
00
#45000000
b01 "
b01 #
b01 %
b01 &
b010 '
1)
1+
1,
1/
01
#50000000
b10 "
b00 #
b10 %
b00 &
b000 '
0)
0+
0,
1.
0/
00
01
#55000000
b11 "
b11 #
b11 %
b11 &
b110 '
1)
1+
1,
1/
10
11
#60000000
b11 !
b00 "
b11 #
b11 $
b00 %
b11 &
b000 '
1(
0)
0+
0.
0/
00
11
#65000000
b01 "
b10 #
b01 %
b10 &
1)
0,
#70000000
b10 "
b01 #
b10 %
b01 &
0)
1,
1.
01
#75000000
b11 "
b00 #
b11 %
b00 &
1)
0,
#80000000
b00 !
b00 "
b00 $
b00 %
0(
0)
0-
0.
#85000000
b01 "
b11 #
b01 %
b11 &
b110 '
1)
1+
1,
1/
10
11
#90000000
b10 "
b10 #
b10 %
b10 &
b100 '
0)
0+
0,
1.
0/
11
#95000000
b11 "
b01 #
b11 %
b01 &
b110 '
1)
1+
1,
1/
01
#100000000
b01 !
b00 "
b01 #
b01 $
b00 %
b01 &
b000 '
1(
0)
0+
0.
0/
00
01
#105000000
b01 "
b00 #
b01 %
b00 &
1)
0,
#110000000
b10 "
b11 #
b10 %
b11 &
b100 '
0)
1,
1.
10
11
#115000000
b11 "
b10 #
b11 %
b10 &
1)
0,
#120000000
b10 !
b00 "
b10 $
b00 %
b000 '
0(
0)
1-
0.
00
#125000000
b01 "
b01 #
b01 %
b01 &
b010 '
1)
1+
1,
1/
01
#130000000
b10 "
b00 #
b10 %
b00 &
b000 '
0)
0+
0,
1.
0/
00
01
#135000000
b11 "
b11 #
b11 %
b11 &
b110 '
1)
1+
1,
1/
10
11
#140000000
b11 !
b00 "
b11 #
b11 $
b00 %
b11 &
b000 '
1(
0)
0+
0.
0/
00
11
#145000000
b01 "
b10 #
b01 %
b10 &
1)
0,
